Chapter 4 Data Visualization | PSY317L & PSY120R Textbook
…
We need to turn this to long data to be able to make the stacked boxplot graph. See section ?? for more on how to switch between wide and long data formats:

wheels2.long <- wheels2 %>% pivot_longer(cols = 3:4, names_to = "day")
wheels2.long

## # A tibble: 160 x 4
##    id    strain day    value
##    <chr> <chr>  <chr>  <dbl>
##  1 692ao B6     day1  12853 
##  2 692ao B6     day4  12516.
##  3 656aa B6     day1   2644 
##  4 656aa B6     day4   7404.
##  5 675ag B6     day1   4004.
##  6 675ag B6     day4   3761 
##  7 675ai B6     day1  11754.
##  8 675ai B6     day4  11684 
##  9 656af B6     day1   6906.
## 10 656af B6     day4   8468.
## # ... with 150 more rows
…
