Chapter 6 Descriptives | PSY317L & PSY120R Textbook
…
## [1] 68.78767

median(atx$temp) # median

## [1] 70.8

For some descriptives, like mode, there is not a function already built into R. One option is to use table() to get frequencies - but this isn’t useful when you have relatively large datasets. The output is too large. Another option is to use tidyverse methods. Here, we use group_by() to get each temperature, then we use count() to count how many of each temperature we have, and then arrange() to determine which is most frequent:

atx %>%
  group_by(temp) %>%
  count() %>%
  arrange(-n)

## # A tibble: 248 x 2
## # Groups:   temp [248]
##     temp     n
##    <dbl> <int>
##  1  84.8     5
##  2  51.6     4
##  3  75.5     4
##  4  83.7     4
##  5  84.2     4
##  6  84.3     4
##  7  84.9     4
##  8  86.1     4
##  9  42.3     3
## 10  52       3
## # ... with 238 more rows
…
Say we want to know how many male and female cats of each breed we have. With tidyverse, we would do it like this:

cats %>%
  group_by(breed,sex) %>%
  count()

## # A tibble: 87 x 3
## # Groups:   breed, sex [87]
##    breed                   sex        n
##    <chr>                   <chr>  <int>
##  1 abyssinian              Female     2
##  2 abyssinian              Male       1
##  3 american curl shorthair Female     4
##  4 american curl shorthair Male       1
##  5 american shorthair      Female    28
##  6 american shorthair      Male      44
##  7 angora                  Female     4
##  8 angora                  Male       2
##  9 angora/persian          Male       1
## 10 balinese                Female     3
## # ... with 77 more rows

This gives us a lot of information. In fact, we have 87 rows of data. However, we could next sort by the newly created n column, to see which sex/breed combination we have the highest amount of. We can use arrange() to do this:

cats %>%
  group_by(breed,sex) %>%
  count() %>%
  arrange(-n)

## # A tibble: 87 x 3
## # Groups:   breed, sex [87]
##    breed               sex        n
##    <chr>               <chr>  <int>
##  1 domestic shorthair  Male    6303
##  2 domestic shorthair  Female  4757
##  3 domestic mediumhair Male     702
##  4 domestic mediumhair Female   512
##  5 domestic longhair   Male     381
##  6 domestic longhair   Female   328
##  7 siamese             Male     214
##  8 siamese             Female   135
##  9 maine coon          Male      54
## 10 snowshoe            Male      45
## # ... with 77 more rows

Another thing we can do is to count how many there are of a given category or categories that satisfy certain conditions. For example, let’s say we wanted to know the most popular name of each breed for orange cats. We could first filter the data by color1 to only keep orange cats, then group by name and breed and then use count() and arrange():

cats %>%
  filter(color1 == "orange") %>%
  group_by(name,breed) %>%
  count() %>% 
  arrange(-n)

## # A tibble: 1,304 x 3
## # Groups:   name, breed [1,304]
##    name     breed                  n
##    <chr>    <chr>              <int>
##  1 Oliver   domestic shorthair    16
##  2 Oscar    domestic shorthair    12
##  3 Ginger   domestic shorthair    11
##  4 Sam      domestic shorthair    11
##  5 Garfield domestic shorthair    10
##  6 Simba    domestic shorthair    10
##  7 Tiger    domestic shorthair    10
##  8 Toby     domestic shorthair    10
##  9 Charlie  domestic shorthair     9
## 10 Milo     domestic shorthair     9
## # ... with 1,294 more rows

It turns out that the most popular names overall for orange cats are for domestic shorthairs who are called Oliver, then Oscar, Ginger, Sam, Garfield and so on.

To do exactly what we said above, we can do something a bit different. After we’ve done all the above, we can then tell the chain that we only want to group by breed this time, and we want to keep the highest value with top_n(1). This returns the following:

cats %>%
  filter(color1 == "orange") %>%
  group_by(name,breed) %>%
  count() %>% 
  arrange(-n) %>% 
  group_by(breed) %>%
  top_n(1)

## # A tibble: 23 x 3
## # Groups:   breed [11]
##    name    breed                   n
##    <chr>   <chr>               <int>
##  1 Oliver  domestic shorthair     16
##  2 Boris   domestic mediumhair     5
##  3 Pumpkin domestic mediumhair     5
##  4 Charlie domestic longhair       3
##  5 Gilbert domestic longhair       3
##  6 Pumpkin domestic longhair       3
##  7 Amos    american shorthair      2
##  8 Roxy    cymric                  2
##  9 Alise   manx                    1
## 10 Ami     british shorthair       1
## # ... with 13 more rows
…
