Chapter 4 Introduction to Data Carpentry | PSY317L & PSY120R Textbook
…
What if you just want the first 10 rows of kcal? Then we could get all the data from that column with df$kcal but then use the square brackets to tell it to get the values in positions 1 to 10 with [1:10]:

df$kcal[1:10]

##  [1] 353 371 334 300 376 403 387 394  98  97

This works, because you can think of all the data values in each column as essentially its own vector. The square brackets work just as they would with any other vector indexing (see section 3.3).

Square brackets can be used on the whole dataframe to call just certain rows and columns. Importantly row numbers need to be written before the comma, and columns after comma. If you leave anything blank, then it will assume that you mean “all” of the rows or columns.

Technically, running df, and df[,] all return the whole dataframe. What you’re saying is return all of the rows and all of the columns from df.

df

## # A tibble: 73 x 9
##    type                         sat_fat polysat_fat monosat_fat protein  carb  chol fiber  kcal
##    <chr>                          <dbl>       <dbl>       <dbl>   <dbl> <dbl> <dbl> <dbl> <dbl>
##  1 blue                           18.7        0.8         7.78     21.4  2.34    75 0       353
##  2 brick                          18.8        0.784       8.60     23.2  2.79    94 0       371
##  3 brie                           17.4        0.826       8.01     20.8  0.45   100 0       334
##  4 camembert                      15.3        0.724       7.02     19.8  0.46    72 0       300
##  5 caraway                        18.6        0.83        8.28     25.2  3.06    93 0       376
##  6 cheddar                        21.1        0.942       9.39     24.9  1.28   105 0       403
##  7 cheshire                       19.5        0.87        8.67     23.4  4.78   103 0       387
##  8 colby                          20.2        0.953       9.28     23.8  2.57    95 0       394
##  9 cottage,crmd,lrg or sml curd    1.72       0.123       0.778    11.1  3.38    17 0        98
## 10 cottage,crmd,w/fruit            2.31       0.124       1.04     10.7  4.61    13 0.200    97
## # ... with 63 more rows

df[,] #return all rows and all columns

## # A tibble: 73 x 9
##    type                         sat_fat polysat_fat monosat_fat protein  carb  chol fiber  kcal
##    <chr>                          <dbl>       <dbl>       <dbl>   <dbl> <dbl> <dbl> <dbl> <dbl>
##  1 blue                           18.7        0.8         7.78     21.4  2.34    75 0       353
##  2 brick                          18.8        0.784       8.60     23.2  2.79    94 0       371
##  3 brie                           17.4        0.826       8.01     20.8  0.45   100 0       334
##  4 camembert                      15.3        0.724       7.02     19.8  0.46    72 0       300
##  5 caraway                        18.6        0.83        8.28     25.2  3.06    93 0       376
##  6 cheddar                        21.1        0.942       9.39     24.9  1.28   105 0       403
##  7 cheshire                       19.5        0.87        8.67     23.4  4.78   103 0       387
##  8 colby                          20.2        0.953       9.28     23.8  2.57    95 0       394
##  9 cottage,crmd,lrg or sml curd    1.72       0.123       0.778    11.1  3.38    17 0        98
## 10 cottage,crmd,w/fruit            2.31       0.124       1.04     10.7  4.61    13 0.200    97
## # ... with 63 more rows
…
## # A tibble: 5 x 9
##   type                                      sat_fat polysat_fat monosat_fat protein  carb  chol fiber  kcal
##   <chr>                                       <dbl>       <dbl>       <dbl>   <dbl> <dbl> <dbl> <dbl> <dbl>
## 1 cottage,crmd,w/fruit                        2.31        0.124       1.04    10.7   4.61    13 0.200    97
## 2 cottage,nonfat,uncrmd,dry,lrg or sml curd   0.169       0.003       0.079   10.3   6.66     7 0        72
## 3 cottage,lowfat,2% milkfat                   0.979       0.07        0.443   11.8   3.66    10 0        86
## 4 cottage,lowfat,1% milkfat                   0.645       0.031       0.291   12.4   2.72     4 0        72
## 5 cream                                      19.3         1.44        8.62     5.93  4.07   110 0       342

To get the 3rd column you can leave before the comma blank, and put a 3 after the comma:

df[,3]

## # A tibble: 73 x 1
##    polysat_fat
##          <dbl>
##  1       0.8  
##  2       0.784
##  3       0.826
##  4       0.724
##  5       0.83 
##  6       0.942
##  7       0.87 
##  8       0.953
##  9       0.123
## 10       0.124
## # ... with 63 more rows

To get the first and second columns, leave before the comma blank and put a 1:2 after the comma:

df[,1:2]

## # A tibble: 73 x 2
##    type                         sat_fat
##    <chr>                          <dbl>
##  1 blue                           18.7 
##  2 brick                          18.8 
##  3 brie                           17.4 
##  4 camembert                      15.3 
##  5 caraway                        18.6 
##  6 cheddar                        21.1 
##  7 cheshire                       19.5 
##  8 colby                          20.2 
##  9 cottage,crmd,lrg or sml curd    1.72
## 10 cottage,crmd,w/fruit            2.31
## # ... with 63 more rows

If you want to get non-consecutive columns, you need to use c() with your numbers. For example, to get the 3rd, 5th, and 9th columns you leave before the comma blank and put c(3,5,9) after the comma:

df[,c(3,5,9)]

## # A tibble: 73 x 3
##    polysat_fat protein  kcal
##          <dbl>   <dbl> <dbl>
##  1       0.8      21.4   353
##  2       0.784    23.2   371
##  3       0.826    20.8   334
##  4       0.724    19.8   300
##  5       0.83     25.2   376
##  6       0.942    24.9   403
##  7       0.87     23.4   387
##  8       0.953    23.8   394
##  9       0.123    11.1    98
## 10       0.124    10.7    97
## # ... with 63 more rows
…
4.5.3 select() - Selecting specific columns

Sometimes datasets are too big and unwieldy to look at all at once. Often, we are just interested in certain columns and it makes more sense just to keep the ones we want to focus on. We can use select() to only keep certain columns:

For example, to only keep the columns ids, smoker, hrate and children, we’d do the following:

bw %>% 
  select(ids, smoker, hrate, children)

## # A tibble: 30 x 4
##    ids   smoker hrate children
##    <chr> <chr>  <dbl>    <dbl>
##  1 JEC   no        63        1
##  2 GBH   yes       73        1
##  3 EDH   no        65        0
##  4 AAA   no        66        3
##  5 AJF   no        67        0
##  6 FJC   yes       80        1
##  7 IEE   no        71        2
##  8 BED   no        62        0
##  9 BFB   no        68        0
## 10 IEA   yes       74        0
## # ... with 20 more rows

Occasionally, you may just want to get rid of certain columns from your data. To get rid of one column you can use select(-column_name). To get rid of the children column, we’d do the following:

bw %>% 
  select(-children)

## # A tibble: 30 x 10
##    ids     age sex    state smoker hrate bpsyst cellcount immuncount immuncount2
##    <chr> <dbl> <chr>  <chr> <chr>  <dbl>  <dbl>     <dbl>      <dbl>       <dbl>
##  1 JEC      19 female NJ    no        63    101     0.126      0.993       0.921
##  2 GBH      20 male   NY    yes       73    120     0.169      1.18        1.19 
##  3 EDH      21 female NJ    no        65    100     0.281      4.34        3.21 
##  4 AAA      21 female CT    no        66    109     0.244      2.56        4.01 
##  5 AJF      24 female NJ    no        67    108     0.092      6.45        9.13 
##  6 FJC      25 female NY    yes       80    118     0.014      3.97        2.85 
##  7 IEE      26 female NY    no        71    118     0.093      5.41       10.2  
##  8 BED      28 female CT    no        62    104     0.082      1.18        0.788
##  9 BFB      28 female NJ    no        68    118     0.197      0.724       0.848
## 10 IEA      29 female CT    yes       74    117     0.429      5.15        4.97 
## # ... with 20 more rows

To get rid of the children, bpsyst and smoker columns, we’d do the following:

bw %>% 
  select(-children, -bpsyst, -smoker)

## # A tibble: 30 x 8
##    ids     age sex    state hrate cellcount immuncount immuncount2
##    <chr> <dbl> <chr>  <chr> <dbl>     <dbl>      <dbl>       <dbl>
##  1 JEC      19 female NJ       63     0.126      0.993       0.921
##  2 GBH      20 male   NY       73     0.169      1.18        1.19 
##  3 EDH      21 female NJ       65     0.281      4.34        3.21 
##  4 AAA      21 female CT       66     0.244      2.56        4.01 
##  5 AJF      24 female NJ       67     0.092      6.45        9.13 
##  6 FJC      25 female NY       80     0.014      3.97        2.85 
##  7 IEE      26 female NY       71     0.093      5.41       10.2  
##  8 BED      28 female CT       62     0.082      1.18        0.788
##  9 BFB      28 female NJ       68     0.197      0.724       0.848
## 10 IEA      29 female CT       74     0.429      5.15        4.97 
## # ... with 20 more rows

You can also select and rename columns as you go. Here, we are selecting the columns ids, sex, smoker, hrate and children. We are renaming sex to be gender and ids to be subject. You rename by just typing the new name and then putting an = sign in front of the old name:

bw %>% 
  select(subject = ids, gender = sex, smoker, hrate, children)

## # A tibble: 30 x 5
##    subject gender smoker hrate children
##    <chr>   <chr>  <chr>  <dbl>    <dbl>
##  1 JEC     female no        63        1
##  2 GBH     male   yes       73        1
##  3 EDH     female no        65        0
##  4 AAA     female no        66        3
##  5 AJF     female no        67        0
##  6 FJC     female yes       80        1
##  7 IEE     female no        71        2
##  8 BED     female no        62        0
##  9 BFB     female no        68        0
## 10 IEA     female yes       74        0
## # ... with 20 more rows
…
Instead of typing out the column name each time you use select(), you can also use the column number.

The code below selects for columns 1-2, 8, 10, but does not save the information as a new object. Notice that you don’t need to put these numbers inside of c() for this to work:

bw %>% select(1:2,8,10)

## # A tibble: 30 x 4
##    ids     age bpsyst immuncount
##    <chr> <dbl>  <dbl>      <dbl>
##  1 JEC      19    101      0.993
##  2 GBH      20    120      1.18 
##  3 EDH      21    100      4.34 
##  4 AAA      21    109      2.56 
##  5 AJF      24    108      6.45 
##  6 FJC      25    118      3.97 
##  7 IEE      26    118      5.41 
##  8 BED      28    104      1.18 
##  9 BFB      28    118      0.724
## 10 IEA      29    117      5.15 
## # ... with 20 more rows

4.5.4 mutate() - Creating new columns

We use mutate() to add new columns to our dataset. Say we wanted to create a new column called totalimmune that is the sum of the two columns immuncount and immuncount2. Basically, we want to add each subject’s immuncount and immuncount2 value together to create a new value called totalimmune that we’ll put into the new column.

The first thing you put inside mutate() is the name we want of the new column. immuncount + immuncount means to add these two columns.

To make these easier to see, we’ll just select three columns and call the new dataset bw2:

bw2 <- bw %>%
  select(ids, immuncount, immuncount2)

bw2

## # A tibble: 30 x 3
##    ids   immuncount immuncount2
##    <chr>      <dbl>       <dbl>
##  1 JEC        0.993       0.921
##  2 GBH        1.18        1.19 
##  3 EDH        4.34        3.21 
##  4 AAA        2.56        4.01 
##  5 AJF        6.45        9.13 
##  6 FJC        3.97        2.85 
##  7 IEE        5.41       10.2  
##  8 BED        1.18        0.788
##  9 BFB        0.724       0.848
## 10 IEA        5.15        4.97 
## # ... with 20 more rows

bw2 %>% 
  mutate(totalimmune = immuncount + immuncount2)

## # A tibble: 30 x 4
##    ids   immuncount immuncount2 totalimmune
##    <chr>      <dbl>       <dbl>       <dbl>
##  1 JEC        0.993       0.921        1.91
##  2 GBH        1.18        1.19         2.37
##  3 EDH        4.34        3.21         7.55
##  4 AAA        2.56        4.01         6.57
##  5 AJF        6.45        9.13        15.6 
##  6 FJC        3.97        2.85         6.82
##  7 IEE        5.41       10.2         15.6 
##  8 BED        1.18        0.788        1.97
##  9 BFB        0.724       0.848        1.57
## 10 IEA        5.15        4.97        10.1 
## # ... with 20 more rows

You can also create new columns in other ways. For example, if you want to create a new column called year and put 2020 into each row, we’d do the following:

bw2 %>% 
  mutate(year = 2020)

## # A tibble: 30 x 4
##    ids   immuncount immuncount2  year
##    <chr>      <dbl>       <dbl> <dbl>
##  1 JEC        0.993       0.921  2020
##  2 GBH        1.18        1.19   2020
##  3 EDH        4.34        3.21   2020
##  4 AAA        2.56        4.01   2020
##  5 AJF        6.45        9.13   2020
##  6 FJC        3.97        2.85   2020
##  7 IEE        5.41       10.2    2020
##  8 BED        1.18        0.788  2020
##  9 BFB        0.724       0.848  2020
## 10 IEA        5.15        4.97   2020
## # ... with 20 more rows
…
You can see that we have the total number of holes played, the total number of putts made, and the scoring average (lower is better in golf) made each year by various PGA golfers.

Perhaps we want to know who has the highest or lowest scoring average. We can sort based on the column score.avg in ascending order with arrange() like this:

pga1 %>% 
  arrange(score.avg)  

## # A tibble: 2,269 x 5
##    name            year total.holes total.putts score.avg
##    <chr>          <dbl>       <dbl>       <dbl>     <dbl>
##  1 Tiger Woods     2007        1080        1736      67.8
##  2 Tiger Woods     2009        1116        1763      68.1
##  3 Tiger Woods     2006         936        1528      68.1
##  4 Tiger Woods     2005        1332        2124      68.7
##  5 Rory McIlroy    2014        1152        1830      68.8
##  6 Vijay Singh     2004        1980        3216      68.8
##  7 Luke Donald     2011        1206        1878      68.9
##  8 Jim Furyk       2006        1584        2539      68.9
##  9 Rory McIlroy    2012         972        1551      68.9
## 10 Steve Stricker  2013         846        1348      68.9
## # ... with 2,259 more rows

So, the lowest average score was 67.794 by Tiger Woods in 2007. The second lowest was 68.052 by Tiger Woods in 2009.

To sort data in descending order, we need to put a negative sign (hyphen) - in front of the column name:

pga1 %>% 
  arrange(-score.avg)  

## # A tibble: 2,269 x 5
##    name              year total.holes total.putts score.avg
##    <chr>            <dbl>       <dbl>       <dbl>     <dbl>
##  1 David Gossett     2004        1026        1693      75.0
##  2 Kevin Muncrief    2004         900        1490      73.5
##  3 Chris Couch       2004         990        1635      73.5
##  4 Hidemichi Tanaka  2006        1314        2136      73.5
##  5 David Duval       2008         918        1497      73.2
##  6 Brad Faxon        2010         972        1567      73.1
##  7 Eric Axley        2009        1206        1916      73.1
##  8 Hirofumi Miyase   2004        1134        1857      73.1
##  9 Greg Kraft        2010         828        1370      73.1
## 10 Stephen Gangluff  2012         918        1507      73.0
## # ... with 2,259 more rows

The worst average score on the PGA tour was by David Gossett in 2004 with an average of 75.013.

arrange() can also sort data in ascending alphabetical order, if you put a column with character data into the function, such as the name column in our data:

pga1 %>% 
  arrange(name) 

## # A tibble: 2,269 x 5
##    name            year total.holes total.putts score.avg
##    <chr>          <dbl>       <dbl>       <dbl>     <dbl>
##  1 Aaron Baddeley  2004        1530        2411      71.6
##  2 Aaron Baddeley  2005        1476        2303      71.3
##  3 Aaron Baddeley  2006        1368        2125      71.2
##  4 Aaron Baddeley  2007        1440        2261      70.1
##  5 Aaron Baddeley  2008        1314        2072      70.2
##  6 Aaron Baddeley  2009        1170        1826      71.2
##  7 Aaron Baddeley  2010        1692        2686      71.0
##  8 Aaron Baddeley  2011        1350        2129      70.2
##  9 Aaron Baddeley  2012        1296        2021      71.1
## 10 Aaron Baddeley  2013        1188        1835      71.5
## # ... with 2,259 more rows

It turns out that Aaron Baddeley is the player that is closest to the beginning of the alphabet. You cannot sort in a descending way on character data.

If you wish to sort over multiple columns, you just need to separate your column names with a comma inside arrange(). So, to first sort by year, and then by score.avg, we’d do the following:

pga1 %>% 
  arrange(year, score.avg)  

## # A tibble: 2,269 x 5
##    name            year total.holes total.putts score.avg
##    <chr>          <dbl>       <dbl>       <dbl>     <dbl>
##  1 Vijay Singh     2004        1980        3216      68.8
##  2 Ernie Els       2004        1044        1653      69.0
##  3 Tiger Woods     2004        1296        2048      69.0
##  4 Phil Mickelson  2004        1422        2287      69.2
##  5 Retief Goosen   2004         990        1580      69.3
##  6 Sergio Garcia   2004        1152        1919      69.8
##  7 Stewart Cink    2004        1746        2731      69.8
##  8 Stephen Ames    2004        1710        2756      69.9
##  9 Scott Verplank  2004        1638        2619      69.9
## 10 David Toms      2004        1332        2174      70.0
## # ... with 2,259 more rows

You can see that the lowest year in this dataset is 2004, and so it put all the rows with 2004 at the top, and then sorted each of these rows by score.avg. So, Vijay Singh had the lowest score with 68.839 in 2004.

4.5.6 Chaining together

Just as an extra note, the real power of these tidyverse commands, is by chaining them all together. So, one thing we could do is select from our original pga dataset the columns above, then create a new column called putt.avg which is equal to the total number of putts total.putts divided by the total number of holes total.holes columns, and then arrange in ascending order by the new putt.avg column. Here it is in one bit of code:

pga %>%
  select(name, year, total.holes, total.putts, score.avg)  %>%
  mutate(putt.avg = total.putts / total.holes) %>%
  arrange(putt.avg)

## # A tibble: 2,269 x 6
##    name            year total.holes total.putts score.avg putt.avg
##    <chr>          <dbl>       <dbl>       <dbl>     <dbl>    <dbl>
##  1 Brian Gay       2013        1422        2173      71.2     1.53
##  2 Kevin Na        2011        1512        2331      70.4     1.54
##  3 Greg Chalmers   2011        1548        2388      70.6     1.54
##  4 Justin Leonard  2014        1350        2083      70.9     1.54
##  5 Steve Stricker  2005        1116        1723      71.1     1.54
##  6 Aaron Baddeley  2013        1188        1835      71.5     1.54
##  7 Jordan Spieth   2015        1584        2448      68.9     1.55
##  8 Jordan Spieth   2014        1764        2730      69.9     1.55
##  9 Tim Clark       2007        1152        1784      69.9     1.55
## 10 Jonas Blixt     2012        1260        1952      70.2     1.55
## # ... with 2,259 more rows
…
